Take-Home Exercise 1: Data Visualisation on Singapore’s Demographics (2024) – ISSS608-VAA
…
is.na() allows us to identify missing values in our dataset and sum() counts the frequency of such missing values.

# Checks for NA in each column
colSums(is.na(popu_data1))

 PA  SZ Age Sex Pop 
  0   0   0   0   0 

The result indicates that there are no missing values in any of the columns (PA, SZ, Age, Sex, Pop); each column has 0 missing values, confirming that the dataset is complete.

# Here's what the dataset looks like so far
popu_data1

# A tibble: 60,424 × 5
   PA         SZ                     Age   Sex       Pop
   <chr>      <chr>                  <chr> <chr>   <dbl>
 1 Ang Mo Kio Ang Mo Kio Town Centre 0     Males      10
 2 Ang Mo Kio Ang Mo Kio Town Centre 0     Females    10
 3 Ang Mo Kio Ang Mo Kio Town Centre 1     Males      10
 4 Ang Mo Kio Ang Mo Kio Town Centre 1     Females    10
 5 Ang Mo Kio Ang Mo Kio Town Centre 2     Males      10
 6 Ang Mo Kio Ang Mo Kio Town Centre 2     Females    10
 7 Ang Mo Kio Ang Mo Kio Town Centre 3     Males      10
 8 Ang Mo Kio Ang Mo Kio Town Centre 3     Females    10
 9 Ang Mo Kio Ang Mo Kio Town Centre 4     Males      30
10 Ang Mo Kio Ang Mo Kio Town Centre 4     Females    10
# ℹ 60,414 more rows
…
1.3.4 Standardizing Labels

popu_data1 <- popu_data1 %>%
  mutate(
    Sex = recode(Sex, "Males" = "Male", "Females" = "Female")
  )

# Here's what the dataset looks like so far
popu_data1

# A tibble: 60,424 × 5
   PA         SZ                       Age Sex      Pop
   <chr>      <chr>                  <int> <chr>  <dbl>
 1 Ang Mo Kio Ang Mo Kio Town Centre     0 Male      10
 2 Ang Mo Kio Ang Mo Kio Town Centre     0 Female    10
 3 Ang Mo Kio Ang Mo Kio Town Centre     1 Male      10
 4 Ang Mo Kio Ang Mo Kio Town Centre     1 Female    10
 5 Ang Mo Kio Ang Mo Kio Town Centre     2 Male      10
 6 Ang Mo Kio Ang Mo Kio Town Centre     2 Female    10
 7 Ang Mo Kio Ang Mo Kio Town Centre     3 Male      10
 8 Ang Mo Kio Ang Mo Kio Town Centre     3 Female    10
 9 Ang Mo Kio Ang Mo Kio Town Centre     4 Male      30
10 Ang Mo Kio Ang Mo Kio Town Centre     4 Female    10
# ℹ 60,414 more rows
…
